<svg xmlns="http://www.w3.org/2000/svg" width="80" height="77" viewBox="0 0 80 77">
  <g fill="none" fill-rule="evenodd" stroke-width="2.88" transform="translate(2 2)">
    <g stroke="#2C435A" opacity=".5" transform="translate(20.535 24.321)">
      <ellipse cx="28.086" cy="12.143" rx="12.138" ry="12.143"/>
      <path d="M3.73028622,30.3550219 L52.4766697,30.3550219 L52.4766697,30.3551032 C54.1302722,30.3551032 55.4707819,31.6962055 55.4707819,33.3505391 C55.4707819,34.0736746 55.2093005,34.7723991 54.7346054,35.3177338 C47.0481749,44.1479804 38.0306676,48.5631035 27.6820835,48.5631035 C17.2979653,48.5631035 8.535968,44.1176076 1.39609151,35.2266157 L1.39612834,35.226586 C0.360448046,33.9368962 0.565901362,32.0514402 1.85502117,31.0153021 C2.38669964,30.5879621 3.04827445,30.3550219 3.73028622,30.3550219 Z"/>
    </g>
    <path stroke="#304861" d="M53.6895445 18.288499C53.6895445 8.22974693 45.5389181.0755172414 35.484611.0755172414 25.4303038.0755172414 17.2796774 8.22974693 17.2796774 18.288499 17.2796774 26.34045 22.502497 33.1720068 29.7437947 35.5774114M29.9826298 45.5711296L3.2664805 45.5711296 3.2664805 45.5711913C1.61286712 45.5711913.272348625 46.9123022.272348625 48.5666468.272348625 48.7032318.281686382 48.8396573.300296553 48.9749673.930663039 53.5582194 2.87800251 57.4827231 6.14231499 60.7484788 12.2106262 66.8194727 21.3130929 69.8549695 21.3130929 69.8549695" stroke-linecap="round"/>
  </g>
</svg>
